…
                   
                   
                   
> dataM
# A tibble: 214 x 5
   country             NY.GDP.PCAP.CD SP.DYN.LE00.IN SE.ADT.LITR.ZS iso3c
   <chr>                        <dbl>          <dbl>          <dbl> <chr>
 1 Afghanistan                   545.           61.8           31.7 AFG  
 2 Albania                      4226.           77.1           96.7 ALB  
 3 Algeria                      4664.           75.0           75.1 DZA  
 4 American Samoa              11019.          NaN            NaN   ASM  
 5 Andorra                     41297.          NaN            100.  AND  
 6 Angola                       3922.           59.0           66.0 AGO  
 7 Antigua and Barbuda         13376.           75.6          NaN   ATG  
 8 Argentina                   11478.           75.8           98.1 ARG  
 9 Armenia                      3597.           73.7           99.7 ARM  
10 Aruba                       25539.           75.2           96.8 ABW  
# ... with 204 more rows
> 
> # replace literacy rate NAs with 97.5 (mostly OECD)
> dataM$SE.ADT.LITR.ZS <- ifelse(is.na(dataM$SE.ADT.LITR.ZS), 97.5, dataM$SE.ADT.LITR.ZS)
> 
> # filter NAs
> dataM <- dataM %>% filter(!is.na(NY.GDP.PCAP.CD), !is.na(SP.DYN.LE00.IN), !is.na(SE.ADT.LITR.ZS))
> dataM
# A tibble: 196 x 5
   country             NY.GDP.PCAP.CD SP.DYN.LE00.IN SE.ADT.LITR.ZS iso3c
   <chr>                        <dbl>          <dbl>          <dbl> <chr>
 1 Afghanistan                   545.           61.8           31.7 AFG  
 2 Albania                      4226.           77.1           96.7 ALB  
 3 Algeria                      4664.           75.0           75.1 DZA  
 4 Angola                       3922.           59.0           66.0 AGO  
 5 Antigua and Barbuda         13376.           75.6           97.5 ATG  
 6 Argentina                   11478.           75.8           98.1 ARG  
 7 Armenia                      3597.           73.7           99.7 ARM  
 8 Aruba                       25539.           75.2           96.8 ABW  
 9 Australia                   55085.           81.9           97.5 AUS  
10 Austria                     48362.           80.8           97.5 AUT  
# ... with 186 more rows
…
